<svg width="474" height="237" viewBox="0 0 474 237" fill="none" xmlns="http://www.w3.org/2000/svg">
<path opacity="0.402679" fill-rule="evenodd" clip-rule="evenodd" d="M7 0H467C478.046 0 487 8.9543 487 20V162.215C454.682 162.215 409.078 156.641 350.188 145.494C319.315 139.651 203.93 113.988 137.185 113.988C73.2355 113.988 23.1737 121.886 -13 137.68V20C-13 8.9543 -4.0457 0 7 0Z" fill="url(#paint0_linear)"/>
<path d="M279.776 75H203.993C202 75 200.385 76.6129 200.385 78.6026V181.397C200.385 183.387 202 185 203.993 185H279.776C281.769 185 283.385 183.387 283.385 181.397V78.6026C283.385 76.6129 281.769 75 279.776 75Z" fill="#CCCCCC"/>
<path d="M274.776 78H198.993C197 78 195.385 79.6129 195.385 81.6026V184.397C195.385 186.387 197 188 198.993 188H274.776C276.769 188 278.385 186.387 278.385 184.397V81.6026C278.385 79.6129 276.769 78 274.776 78Z" fill="#D9D9D9"/>
<path d="M267.776 82H191.993C190 82 188.385 83.6129 188.385 85.6026V188.397C188.385 190.387 190 192 191.993 192H267.776C269.769 192 271.385 190.387 271.385 188.397V85.6026C271.385 83.6129 269.769 82 267.776 82Z" fill="#EAEDF4"/>
<path d="M249.595 97H219.174C218.186 97 217.385 96.1044 217.385 95C217.385 93.8956 218.186 93 219.174 93H249.595C250.583 93 251.385 93.8956 251.385 95C251.385 96.1044 250.583 97 249.595 97Z" fill="#C7CFE2"/>
<path d="M219.015 114.814H197.261C196.26 114.814 195.448 113.999 195.448 112.993C195.448 111.987 196.26 111.171 197.261 111.171H219.015C220.016 111.171 220.828 111.987 220.828 112.993C220.828 113.999 220.016 114.814 219.015 114.814Z" fill="#D7DEED"/>
<path d="M209.951 123.922H197.261C196.26 123.922 195.448 123.106 195.448 122.1C195.448 121.095 196.26 120.279 197.261 120.279H209.951C210.952 120.279 211.764 121.095 211.764 122.1C211.764 123.106 210.952 123.922 209.951 123.922Z" fill="#D7DEED"/>
<path d="M262.522 123.922H233.517C232.516 123.922 231.704 123.106 231.704 122.1C231.704 121.095 232.516 120.279 233.517 120.279H262.522C263.523 120.279 264.335 121.095 264.335 122.1C264.335 123.106 263.523 123.922 262.522 123.922Z" fill="#F7F7F7"/>
<path d="M262.522 114.814H248.02C247.019 114.814 246.207 113.999 246.207 112.993C246.207 111.987 247.019 111.171 248.02 111.171H262.522C263.524 111.171 264.335 111.987 264.335 112.993C264.335 113.999 263.524 114.814 262.522 114.814Z" fill="#F7F7F7"/>
<path d="M240.546 114.847H226.115C225.118 114.847 224.311 114.034 224.311 113.032C224.311 112.03 225.118 111.217 226.115 111.217H240.546C241.542 111.217 242.35 112.03 242.35 113.032C242.35 114.034 241.542 114.847 240.546 114.847Z" fill="#F7F7F7"/>
<path d="M224.311 105.772H197.252C196.256 105.772 195.448 104.959 195.448 103.957C195.448 102.955 196.256 102.142 197.252 102.142H224.311C225.307 102.142 226.115 102.955 226.115 103.957C226.115 104.959 225.307 105.772 224.311 105.772Z" fill="#F7F7F7"/>
<path d="M222.507 123.922H217.095C216.099 123.922 215.291 123.109 215.291 122.107C215.291 121.105 216.099 120.292 217.095 120.292H222.507C223.503 120.292 224.311 121.105 224.311 122.107C224.311 123.109 223.503 123.922 222.507 123.922Z" fill="#F7F7F7"/>
<path d="M204.512 132.724H197.261C196.26 132.724 195.448 131.895 195.448 130.873C195.448 129.851 196.26 129.022 197.261 129.022H204.512C205.513 129.022 206.325 129.851 206.325 130.873C206.325 131.895 205.513 132.724 204.512 132.724Z" fill="#D7DEED"/>
<path d="M238.956 141.978H231.704C230.703 141.978 229.892 141.15 229.892 140.127C229.892 139.105 230.703 138.276 231.704 138.276H238.956C239.957 138.276 240.769 139.105 240.769 140.127C240.769 141.15 239.957 141.978 238.956 141.978Z" fill="#D7DEED"/>
<path d="M262.523 141.978H246.207C245.206 141.978 244.395 141.15 244.395 140.127C244.395 139.105 245.206 138.276 246.207 138.276H262.523C263.524 138.276 264.336 139.105 264.336 140.127C264.335 141.15 263.524 141.978 262.523 141.978Z" fill="#D7DEED"/>
<path d="M262.522 132.724H255.271C254.27 132.724 253.458 131.895 253.458 130.873C253.458 129.851 254.27 129.022 255.271 129.022H262.522C263.523 129.022 264.335 129.851 264.335 130.873C264.335 131.895 263.523 132.724 262.522 132.724Z" fill="#D7DEED"/>
<path d="M248.567 133H212.203C211.199 133 210.385 132.104 210.385 131C210.385 129.896 211.199 129 212.203 129H248.567C249.571 129 250.385 129.896 250.385 131C250.385 132.104 249.571 133 248.567 133Z" fill="#F7F7F7"/>
<path d="M262.595 106H232.174C231.186 106 230.385 105.104 230.385 104C230.385 102.896 231.186 102 232.174 102H262.595C263.583 102 264.385 102.896 264.385 104C264.385 105.104 263.583 106 262.595 106Z" fill="#F7F7F7"/>
<path d="M225.176 162.711C227.749 160.237 230.819 159 234.385 159C237.951 159 241.009 160.226 243.559 162.678C246.11 165.131 247.385 168.071 247.385 171.5C247.385 174.929 246.11 177.869 243.559 180.322C241.009 182.774 237.951 184 234.385 184C230.819 184 227.761 182.774 225.21 180.322C222.66 177.869 221.385 174.929 221.385 171.5C221.385 168.071 222.649 165.142 225.176 162.711ZM242.154 164.084C239.999 162.028 237.41 161 234.385 161C231.36 161 228.77 162.028 226.616 164.084C224.462 166.141 223.385 168.612 223.385 171.5C223.385 174.388 224.462 176.859 226.616 178.916C228.77 180.972 231.36 182 234.385 182C237.41 182 239.999 180.972 242.154 178.916C244.308 176.859 245.385 174.388 245.385 171.5C245.385 168.612 244.308 166.141 242.154 164.084ZM233.385 165H235.385V174H233.385V165ZM233.385 175H235.385V177H233.385V175Z" fill="#00AEC7"/>
<path d="M199.452 204.239L200.657 199.743L140.704 183.678L139.499 188.175L199.452 204.239Z" fill="#FFC36E"/>
<path d="M198.248 208.735L199.453 204.239L139.5 188.174L138.295 192.671L198.248 208.735Z" fill="#FFD782"/>
<path d="M138.121 192.503L140.47 183.736L137.548 182.953C136.741 182.737 135.911 183.216 135.695 184.023L134.129 189.867C133.913 190.674 134.392 191.504 135.199 191.72L138.121 192.503Z" fill="#EFF2FA"/>
<path d="M139.762 187.999L140.931 183.537L137.965 182.724C137.146 182.5 136.308 182.984 136.093 183.805L135.313 186.78L139.762 187.999Z" fill="#D7DEED"/>
<path d="M206.185 206.197L199.08 204.251L200.249 199.789L206.653 204.407L206.185 206.197Z" fill="#D7DEED"/>
<path d="M206.677 207.193L198.339 207.969L199.589 203.203L207.179 205.28L206.677 207.193Z" fill="white"/>
<path d="M209.673 207.694L205.351 208.114L206.499 203.832L210.031 206.357C210.587 206.754 210.353 207.627 209.673 207.694Z" fill="#707487"/>
<path fill-rule="evenodd" clip-rule="evenodd" d="M98 37C107.247 37 114.952 43.6062 116.651 52.3566C117.562 52.1235 118.516 52 119.5 52C125.851 52 131 57.1487 131 63.5C131 66.8679 129.552 69.8977 127.245 72.0009L134.676 72C135.407 72 136 72.4477 136 73C136 73.5523 135.407 74 134.676 74L124.196 74.0006C123.198 74.4475 122.125 74.7564 121.001 74.903L121 75H74C66.8203 75 61 69.1797 61 62C61 54.8203 66.8203 49 74 49C76.1016 49 78.0868 49.4987 79.8436 50.3842C82.2379 42.6328 89.4611 37 98 37ZM148.5 72C149.328 72 150 72.4477 150 73C150 73.5523 149.328 74 148.5 74H146.5C145.672 74 145 73.5523 145 73C145 72.4477 145.672 72 146.5 72H148.5Z" fill="white"/>
<path fill-rule="evenodd" clip-rule="evenodd" d="M379.5 67C385.718 67 390.876 71.5408 391.839 77.4876C392.665 77.1721 393.562 77 394.5 77C398.642 77 402 80.3579 402 84.5C402 86.6736 401.075 88.6312 399.598 90.001L404.118 90C404.605 90 405 90.4477 405 91C405 91.5523 404.605 92 404.118 92H364L364 91.9855C363.835 91.9951 363.668 92 363.5 92C358.806 92 355 88.1944 355 83.5C355 78.8056 358.806 75 363.5 75C364.945 75 366.306 75.3606 367.497 75.9966C369.013 70.798 373.813 67 379.5 67ZM413.1 90C413.597 90 414 90.4477 414 91C414 91.5523 413.597 92 413.1 92H411.9C411.403 92 411 91.5523 411 91C411 90.4477 411.403 90 411.9 90H413.1Z" fill="white"/>
<defs>
<linearGradient id="paint0_linear" x1="237" y1="0" x2="237" y2="162.215" gradientUnits="userSpaceOnUse">
<stop stop-color="#00D7E5"/>
<stop offset="1" stop-color="#00AEC7"/>
</linearGradient>
</defs>
</svg>
