<svg width="177" height="110" viewBox="0 0 177 110" fill="none" xmlns="http://www.w3.org/2000/svg">
<ellipse opacity="0.1" cx="81.6882" cy="84.3826" rx="76.6882" ry="11.617" fill="#00AEC7"/>
<g opacity="0.5">
<path opacity="0.5" d="M4.43437 106.121H3.75391V109.358H4.43437V106.121Z" fill="#47E6B1"/>
<path opacity="0.5" d="M6.02734 108.028V107.457H2.16719V108.028H6.02734Z" fill="#47E6B1"/>
</g>
<path opacity="0.5" d="M148.246 100.771C148.058 100.702 147.907 100.578 147.821 100.423C147.735 100.267 147.721 100.09 147.781 99.9256C147.79 99.9005 147.796 99.8745 147.799 99.8482C147.804 99.773 147.78 99.6984 147.731 99.6354C147.682 99.5724 147.61 99.5242 147.526 99.4982C147.442 99.4722 147.35 99.4696 147.264 99.4908C147.177 99.512 147.102 99.5559 147.048 99.616C147.029 99.6372 147.013 99.6601 147.001 99.6843C146.919 99.8417 146.771 99.9684 146.585 100.04C146.399 100.112 146.188 100.124 145.993 100.074C145.963 100.066 145.932 100.061 145.9 100.059C145.811 100.055 145.722 100.074 145.646 100.116C145.571 100.157 145.514 100.217 145.483 100.288C145.452 100.358 145.449 100.436 145.474 100.508C145.499 100.58 145.552 100.644 145.623 100.689C145.649 100.705 145.676 100.718 145.705 100.728C145.892 100.797 146.044 100.921 146.129 101.077C146.215 101.233 146.23 101.409 146.17 101.574C146.16 101.599 146.154 101.625 146.152 101.651C146.146 101.726 146.17 101.801 146.219 101.864C146.268 101.927 146.34 101.975 146.424 102.001C146.509 102.027 146.601 102.03 146.687 102.009C146.773 101.987 146.849 101.943 146.903 101.883C146.922 101.862 146.937 101.839 146.95 101.815C147.032 101.658 147.179 101.531 147.365 101.459C147.551 101.387 147.762 101.375 147.958 101.425C147.988 101.433 148.019 101.438 148.05 101.44C148.14 101.445 148.229 101.425 148.304 101.384C148.379 101.343 148.437 101.282 148.468 101.211C148.499 101.141 148.502 101.064 148.476 100.991C148.451 100.919 148.399 100.856 148.327 100.81C148.302 100.795 148.275 100.781 148.246 100.771Z" fill="#4D8AF0"/>
<path opacity="0.5" d="M45.3355 1.29434C45.1478 1.22583 44.9967 1.10184 44.9109 0.945974C44.8252 0.79011 44.8107 0.613251 44.8704 0.449043C44.88 0.423928 44.8861 0.397949 44.8885 0.371645C44.8939 0.296484 44.8703 0.221864 44.8212 0.158827C44.772 0.0957901 44.7 0.0476845 44.6158 0.0216381C44.5315 -0.00440832 44.4395 -0.00700898 44.3534 0.0142095C44.2672 0.0354279 44.1915 0.0793362 44.1374 0.139449C44.1186 0.16059 44.1028 0.183513 44.0904 0.207743C44.0087 0.365132 43.8608 0.491845 43.675 0.563761C43.4891 0.635677 43.2782 0.647776 43.0824 0.597764C43.0524 0.589693 43.0214 0.584603 42.9901 0.582592C42.9004 0.578064 42.8114 0.597855 42.7363 0.639038C42.6611 0.680221 42.6037 0.7406 42.5727 0.811249C42.5416 0.881898 42.5385 0.959056 42.5638 1.0313C42.5891 1.10355 42.6415 1.16704 42.7132 1.21239C42.7384 1.22817 42.7657 1.24141 42.7946 1.25184C42.9823 1.32036 43.1334 1.44434 43.2192 1.6002C43.3049 1.75607 43.3194 1.93293 43.2597 2.09714C43.2501 2.12226 43.244 2.14824 43.2416 2.17454C43.2362 2.2497 43.2598 2.32432 43.3089 2.38736C43.358 2.4504 43.4301 2.49849 43.5143 2.52454C43.5985 2.55058 43.6906 2.55319 43.7767 2.53198C43.8629 2.51076 43.9386 2.46684 43.9927 2.40673C44.0115 2.38559 44.0273 2.36267 44.0397 2.33844C44.1214 2.18105 44.2693 2.05434 44.4551 1.98242C44.641 1.91051 44.8519 1.89841 45.0477 1.94842C45.0777 1.95649 45.1087 1.96158 45.14 1.96359C45.2297 1.96812 45.3186 1.94833 45.3938 1.90715C45.469 1.86596 45.5263 1.80558 45.5574 1.73493C45.5885 1.66428 45.5916 1.58712 45.5663 1.51488C45.541 1.44263 45.4886 1.37913 45.4169 1.33379C45.3917 1.31801 45.3644 1.30477 45.3355 1.29434Z" fill="#4D8AF0"/>
<path opacity="0.5" d="M2.7886 69.3373C2.60091 69.2688 2.44982 69.1448 2.36406 68.9889C2.2783 68.8331 2.26386 68.6562 2.3235 68.492C2.33312 68.4669 2.3392 68.4409 2.3416 68.4146C2.347 68.3395 2.32339 68.2648 2.27428 68.2018C2.22517 68.1388 2.15316 68.0907 2.06892 68.0646C1.98467 68.0386 1.89266 68.036 1.8065 68.0572C1.72035 68.0784 1.64463 68.1223 1.59056 68.1824C1.57174 68.2036 1.55595 68.2265 1.5435 68.2507C1.4618 68.4081 1.31395 68.5348 1.12809 68.6067C0.942217 68.6786 0.7313 68.6907 0.535482 68.6407C0.505531 68.6327 0.474552 68.6276 0.443184 68.6256C0.353554 68.621 0.264569 68.6408 0.189397 68.682C0.114225 68.7232 0.0568704 68.7836 0.0258099 68.8542C-0.00525054 68.9249 -0.00836289 69.002 0.0169402 69.0743C0.0422433 69.1465 0.0946151 69.21 0.166301 69.2554C0.191511 69.2711 0.218846 69.2844 0.247741 69.2948C0.435428 69.3633 0.586523 69.4873 0.672283 69.6432C0.758043 69.799 0.772482 69.9759 0.712843 70.1401C0.703218 70.1652 0.697137 70.1912 0.694739 70.2175C0.689339 70.2927 0.712941 70.3673 0.762052 70.4303C0.811163 70.4934 0.883176 70.5415 0.967425 70.5675C1.05167 70.5936 1.14368 70.5962 1.22984 70.5749C1.31599 70.5537 1.39171 70.5098 1.44578 70.4497C1.4646 70.4286 1.48039 70.4056 1.49284 70.3814C1.57454 70.224 1.72239 70.0973 1.90826 70.0254C2.09412 69.9535 2.30503 69.9414 2.50085 69.9914C2.5308 69.9995 2.56178 70.0046 2.59315 70.0066C2.68278 70.0111 2.77176 69.9913 2.84693 69.9501C2.9221 69.9089 2.97947 69.8485 3.01053 69.7779C3.04159 69.7072 3.0447 69.6301 3.0194 69.5578C2.9941 69.4856 2.94173 69.4221 2.87004 69.3768C2.84483 69.361 2.81749 69.3477 2.7886 69.3373Z" fill="#4D8AF0"/>
<path opacity="0.5" d="M25.7222 80.3881C25.5345 80.3196 25.3834 80.1956 25.2976 80.0397C25.2119 79.8839 25.1975 79.707 25.2571 79.5428C25.2667 79.5177 25.2728 79.4917 25.2752 79.4654C25.2806 79.3902 25.257 79.3156 25.2079 79.2526C25.1588 79.1895 25.0868 79.1414 25.0025 79.1154C24.9183 79.0893 24.8263 79.0867 24.7401 79.108C24.6539 79.1292 24.5782 79.1731 24.5242 79.2332C24.5053 79.2543 24.4895 79.2773 24.4771 79.3015C24.3954 79.4589 24.2475 79.5856 24.0617 79.6575C23.8758 79.7294 23.6649 79.7415 23.4691 79.6915C23.4391 79.6834 23.4082 79.6784 23.3768 79.6763C23.2872 79.6718 23.1982 79.6916 23.123 79.7328C23.0478 79.774 22.9905 79.8344 22.9594 79.905C22.9283 79.9757 22.9252 80.0528 22.9505 80.1251C22.9758 80.1973 23.0282 80.2608 23.0999 80.3061C23.1251 80.3219 23.1524 80.3352 23.1813 80.3456C23.369 80.4141 23.5201 80.5381 23.6059 80.694C23.6916 80.8498 23.7061 81.0267 23.6464 81.1909C23.6368 81.216 23.6307 81.242 23.6283 81.2683C23.6229 81.3435 23.6465 81.4181 23.6956 81.4811C23.7448 81.5442 23.8168 81.5922 23.901 81.6183C23.9853 81.6443 24.0773 81.647 24.1634 81.6257C24.2496 81.6045 24.3253 81.5606 24.3794 81.5005C24.3982 81.4793 24.414 81.4564 24.4264 81.4322C24.5081 81.2748 24.656 81.1481 24.8419 81.0762C25.0277 81.0043 25.2386 80.9922 25.4344 81.0422C25.4644 81.0502 25.4954 81.0553 25.5267 81.0573C25.6164 81.0619 25.7054 81.0421 25.7805 81.0009C25.8557 80.9597 25.9131 80.8993 25.9441 80.8287C25.9752 80.758 25.9783 80.6809 25.953 80.6086C25.9277 80.5364 25.8753 80.4729 25.8036 80.4275C25.7784 80.4118 25.7511 80.3985 25.7222 80.3881Z" fill="#FDD835"/>
<path opacity="0.5" d="M121.351 4.61465C121.163 4.54614 121.012 4.42215 120.927 4.26629C120.841 4.11043 120.826 3.93356 120.886 3.76935C120.896 3.74424 120.902 3.71826 120.904 3.69196C120.91 3.6168 120.886 3.54218 120.837 3.47914C120.788 3.4161 120.716 3.368 120.631 3.34195C120.547 3.31591 120.455 3.3133 120.369 3.33452C120.283 3.35574 120.207 3.39965 120.153 3.45977C120.134 3.48091 120.118 3.50383 120.106 3.52806C120.024 3.68545 119.876 3.81216 119.691 3.88407C119.505 3.95599 119.294 3.96809 119.098 3.91808C119.068 3.91001 119.037 3.90491 119.006 3.9029C118.916 3.89837 118.827 3.91817 118.752 3.95935C118.677 4.00053 118.619 4.06092 118.588 4.13157C118.557 4.20221 118.554 4.27937 118.579 4.35162C118.605 4.42386 118.657 4.48736 118.729 4.5327C118.754 4.54848 118.781 4.56173 118.81 4.57216C118.998 4.64067 119.149 4.76466 119.235 4.92052C119.321 5.07638 119.335 5.25325 119.275 5.41746C119.266 5.44257 119.26 5.46855 119.257 5.49485C119.252 5.57002 119.275 5.64464 119.325 5.70767C119.374 5.77071 119.446 5.81881 119.53 5.84486C119.614 5.8709 119.706 5.87351 119.792 5.85229C119.878 5.83107 119.954 5.78716 120.008 5.72705C120.027 5.7059 120.043 5.68298 120.055 5.65875C120.137 5.50136 120.285 5.37466 120.471 5.30274C120.657 5.23082 120.868 5.21872 121.063 5.26873C121.093 5.2768 121.124 5.2819 121.156 5.28391C121.245 5.28844 121.334 5.26864 121.409 5.22746C121.485 5.18628 121.542 5.12589 121.573 5.05525C121.604 4.9846 121.607 4.90744 121.582 4.83519C121.557 4.76295 121.504 4.69945 121.433 4.65411C121.407 4.63833 121.38 4.62508 121.351 4.61465Z" fill="#FDD835"/>
<path opacity="0.5" d="M61.1714 16.2318C60.9837 16.1633 60.8326 16.0393 60.7469 15.8835C60.6611 15.7276 60.6467 15.5507 60.7063 15.3865C60.7159 15.3614 60.722 15.3355 60.7244 15.3091C60.7298 15.234 60.7062 15.1594 60.6571 15.0963C60.608 15.0333 60.536 14.9852 60.4517 14.9591C60.3675 14.9331 60.2755 14.9305 60.1893 14.9517C60.1032 14.9729 60.0274 15.0168 59.9734 15.077C59.9546 15.0981 59.9388 15.121 59.9263 15.1452C59.8446 15.3026 59.6968 15.4293 59.5109 15.5013C59.325 15.5732 59.1141 15.5853 58.9183 15.5353C58.8883 15.5272 58.8574 15.5221 58.826 15.5201C58.7364 15.5156 58.6474 15.5354 58.5722 15.5765C58.497 15.6177 58.4397 15.6781 58.4086 15.7488C58.3776 15.8194 58.3744 15.8966 58.3998 15.9688C58.4251 16.0411 58.4774 16.1045 58.5491 16.1499C58.5743 16.1657 58.6017 16.1789 58.6306 16.1893C58.8182 16.2579 58.9693 16.3818 59.0551 16.5377C59.1409 16.6936 59.1553 16.8704 59.0957 17.0346C59.086 17.0598 59.0799 17.0857 59.0776 17.112C59.0722 17.1872 59.0958 17.2618 59.1449 17.3249C59.194 17.3879 59.266 17.436 59.3502 17.462C59.4345 17.4881 59.5265 17.4907 59.6127 17.4695C59.6988 17.4483 59.7745 17.4043 59.8286 17.3442C59.8474 17.3231 59.8632 17.3002 59.8756 17.2759C59.9574 17.1186 60.1052 16.9918 60.2911 16.9199C60.4769 16.848 60.6878 16.8359 60.8837 16.8859C60.9136 16.894 60.9446 16.8991 60.976 16.9011C61.0656 16.9056 61.1546 16.8858 61.2297 16.8446C61.3049 16.8035 61.3623 16.7431 61.3933 16.6724C61.4244 16.6018 61.4275 16.5246 61.4022 16.4524C61.3769 16.3801 61.3245 16.3166 61.2529 16.2713C61.2276 16.2555 61.2003 16.2423 61.1714 16.2318Z" fill="#FDD835"/>
<path opacity="0.5" d="M148.054 43.1331C148.807 43.1331 149.417 42.6215 149.417 41.9904C149.417 41.3593 148.807 40.8477 148.054 40.8477C147.302 40.8477 146.691 41.3593 146.691 41.9904C146.691 42.6215 147.302 43.1331 148.054 43.1331Z" fill="#F55F44"/>
<path opacity="0.5" d="M85.476 9.75424C86.2286 9.75424 86.8387 9.24261 86.8387 8.61149C86.8387 7.98037 86.2286 7.46875 85.476 7.46875C84.7234 7.46875 84.1133 7.98037 84.1133 8.61149C84.1133 9.24261 84.7234 9.75424 85.476 9.75424Z" fill="#F55F44"/>
<path opacity="0.5" d="M42.7455 108.723C43.4982 108.723 44.1083 108.211 44.1083 107.58C44.1083 106.949 43.4982 106.438 42.7455 106.438C41.9929 106.438 41.3828 106.949 41.3828 107.58C41.3828 108.211 41.9929 108.723 42.7455 108.723Z" fill="#F55F44"/>
<path opacity="0.5" d="M134.062 67.8324C134.815 67.8324 135.425 67.3207 135.425 66.6896C135.425 66.0585 134.815 65.5469 134.062 65.5469C133.309 65.5469 132.699 66.0585 132.699 66.6896C132.699 67.3207 133.309 67.8324 134.062 67.8324Z" fill="#F55F44"/>
<path opacity="0.5" d="M16.7573 10.0316C17.5099 10.0316 18.12 9.51996 18.12 8.88884C18.12 8.25772 17.5099 7.74609 16.7573 7.74609C16.0046 7.74609 15.3945 8.25772 15.3945 8.88884C15.3945 9.51996 16.0046 10.0316 16.7573 10.0316Z" fill="#4D8AF0"/>
<path opacity="0.5" d="M2.35101 41.2035C3.10362 41.2035 3.71374 40.6918 3.71374 40.0607C3.71374 39.4296 3.10362 38.918 2.35101 38.918C1.5984 38.918 0.988281 39.4296 0.988281 40.0607C0.988281 40.6918 1.5984 41.2035 2.35101 41.2035Z" fill="#47E6B1"/>
<path opacity="0.5" d="M175.519 75.3089C176.272 75.3089 176.882 74.7973 176.882 74.1662C176.882 73.5351 176.272 73.0234 175.519 73.0234C174.766 73.0234 174.156 73.5351 174.156 74.1662C174.156 74.7973 174.766 75.3089 175.519 75.3089Z" fill="#47E6B1"/>
<path opacity="0.5" d="M155.726 9.75424C156.479 9.75424 157.089 9.24261 157.089 8.61149C157.089 7.98037 156.479 7.46875 155.726 7.46875C154.973 7.46875 154.363 7.98037 154.363 8.61149C154.363 9.24261 154.973 9.75424 155.726 9.75424Z" fill="#47E6B1"/>
<path d="M105.845 46.3623C106.487 46.3623 107.007 45.8451 107.007 45.2073V28.9111C107.007 28.6046 106.884 28.3107 106.666 28.094L95.8361 17.3417C95.6182 17.1255 95.3229 17.0039 95.0149 17.0039H56.162C55.5203 17.0039 55 17.5211 55 18.1588V84.1594C55 84.7972 55.5203 85.3143 56.162 85.3143H105.845C106.487 85.3143 107.007 84.7972 107.007 84.1594V52.7193C107.007 52.0816 106.487 51.5644 105.845 51.5644C105.203 51.5644 104.683 52.0816 104.683 52.7193V83.0047H57.324V19.314H94.5341L104.683 29.39V45.2072C104.683 45.8451 105.203 46.3623 105.845 46.3623Z" fill="#0436A1"/>
<path d="M106.66 28.0964L95.8353 17.3382C95.5028 17.0078 95.0028 16.9093 94.5688 17.0879C94.1347 17.2667 93.8516 17.6877 93.8516 18.1549V28.9131C93.8516 29.5509 94.3719 30.0681 95.0136 30.0681H105.838C106.308 30.0681 106.731 29.7865 106.911 29.355C107.091 28.9235 106.992 28.4268 106.66 28.0964ZM96.1756 27.7582V20.9433L103.032 27.7582H96.1756Z" fill="#0436A1"/>
<rect width="48" height="12" transform="matrix(1 0 0 -1 57 83)" fill="white"/>
<path d="M72.169 24.5039H62.3886C61.7469 24.5039 61.2266 25.0211 61.2266 25.6588C61.2266 26.2966 61.7469 26.8138 62.3886 26.8138H72.1687C72.8105 26.8138 73.3309 26.2966 73.3309 25.6588C73.3309 25.0211 72.8107 24.5039 72.169 24.5039Z" fill="#3CB0C8"/>
<path d="M100.979 72.3516H90.3417C89.7 72.3516 89.1797 72.8687 89.1797 73.5065C89.1797 74.1442 89.7 74.6614 90.3417 74.6614H100.979C101.621 74.6614 102.141 74.1442 102.141 73.5065C102.141 72.8687 101.621 72.3516 100.979 72.3516Z" fill="#3CB0C8"/>
<path d="M100.981 77.1172H93.9511C93.3094 77.1172 92.7891 77.6343 92.7891 78.2721C92.7891 78.9099 93.3094 79.427 93.9511 79.427H100.981C101.623 79.427 102.143 78.9099 102.143 78.2721C102.143 77.6343 101.623 77.1172 100.981 77.1172Z" fill="#3CB0C8"/>
<path d="M89.0898 36.5742H72.9003C72.2586 36.5742 71.7383 37.0914 71.7383 37.7292C71.7383 38.3669 72.2586 38.8841 72.9003 38.8841H89.0898C89.7314 38.8841 90.2518 38.3669 90.2518 37.7292C90.2518 37.0914 89.7316 36.5742 89.0898 36.5742Z" fill="#3CB0C8"/>
<path d="M99.3555 42.4922H62.619C61.9774 42.4922 61.457 43.0094 61.457 43.6471C61.457 44.2849 61.9774 44.8021 62.619 44.8021H99.3555C99.9972 44.8021 100.517 44.2849 100.517 43.6471C100.517 43.0094 99.9972 42.4922 99.3555 42.4922Z" fill="#3CB0C8"/>
<path d="M99.3555 47.3477H62.619C61.9774 47.3477 61.457 47.8648 61.457 48.5026C61.457 49.1404 61.9774 49.6575 62.619 49.6575H99.3555C99.9972 49.6575 100.517 49.1404 100.517 48.5026C100.517 47.8648 99.9972 47.3477 99.3555 47.3477Z" fill="#3CB0C8"/>
<path d="M90.6386 52.2109H62.619C61.9774 52.2109 61.457 52.7281 61.457 53.3659C61.457 54.0037 61.9774 54.5208 62.619 54.5208H90.6387C91.2804 54.5208 91.8007 54.0037 91.8007 53.3659C91.8007 52.7281 91.2804 52.2109 90.6386 52.2109Z" fill="#3CB0C8"/>
<path d="M92.2001 57.0664H62.619C61.9774 57.0664 61.457 57.5836 61.457 58.2213C61.457 58.8591 61.9774 59.3763 62.619 59.3763H92.2002C92.8419 59.3763 93.3623 58.8591 93.3623 58.2213C93.3623 57.5836 92.8419 57.0664 92.2001 57.0664Z" fill="#3CB0C8"/>
<path d="M89.0817 61.9258H62.619C61.9774 61.9258 61.457 62.4429 61.457 63.0807C61.457 63.7185 61.9774 64.2357 62.619 64.2357H89.0819C89.7236 64.2357 90.2439 63.7185 90.2439 63.0807C90.2439 62.4429 89.7236 61.9258 89.0817 61.9258Z" fill="#3CB0C8"/>
<path d="M77.412 66.7812H62.619C61.9774 66.7812 61.457 67.2984 61.457 67.9362C61.457 68.5739 61.9774 69.0911 62.619 69.0911H77.412C78.0537 69.0911 78.574 68.5739 78.574 67.9362C78.574 67.2983 78.0537 66.7812 77.412 66.7812Z" fill="#3CB0C8"/>
<path d="M76.8099 29.4219H62.3886C61.7469 29.4219 61.2266 29.939 61.2266 30.5768C61.2266 31.2146 61.7469 31.7318 62.3886 31.7318H76.8098C77.4515 31.7318 77.9718 31.2146 77.9718 30.5768C77.9718 29.939 77.4516 29.4219 76.8099 29.4219Z" fill="#3CB0C8"/>
<path d="M92.3309 64.1871L90.447 62.3147C90.0803 61.9503 89.5144 61.8715 89.0608 62.1219L85.3912 64.1493C85.1278 64.2949 84.9318 64.5362 84.844 64.8227L83.3081 69.8417C83.1833 70.2498 83.2947 70.693 83.5982 70.9945C83.8195 71.2144 84.1164 71.3328 84.4201 71.3328C84.5331 71.3328 84.6469 71.3165 84.7581 71.2829L89.8078 69.7561C90.096 69.6688 90.3389 69.474 90.4853 69.2122L92.5252 65.5649C92.7772 65.1141 92.6978 64.5517 92.3309 64.1871ZM88.6821 67.682L86.1655 68.4429L86.931 65.9416L89.4237 64.5643L90.0678 65.2043L88.6821 67.682Z" fill="#0436A1"/>
<path d="M123.359 34.3752C123.344 34.3584 123.329 34.3421 123.313 34.3262L120.5 31.53C120.483 31.514 120.467 31.4985 120.45 31.4836C119.903 31.0001 119.078 31.0003 118.531 31.484C118.52 31.4939 118.509 31.5037 118.498 31.514L105.035 44.3787L92.5635 56.3065C92.5299 56.3387 92.4984 56.3727 92.469 56.4086L88.0742 61.7609C87.6971 62.2201 87.7311 62.8887 88.1529 63.3078L91.3404 66.4756C91.5662 66.6999 91.8634 66.8138 92.1622 66.8138C92.4217 66.8138 92.682 66.7278 92.8969 66.5538L98.2817 62.1857C98.3177 62.1563 98.352 62.1248 98.3842 62.0918L106.679 53.5233L123.329 36.3155C123.339 36.3044 123.35 36.2931 123.36 36.2817C123.846 35.7379 123.845 34.9182 123.359 34.3752ZM105.004 51.922L96.758 60.4401L92.241 64.1042L90.5389 62.4126L94.2254 57.9229L106.647 46.0434L119.478 33.7819L121.047 35.3409L105.004 51.922Z" fill="#0436A1"/>
<path d="M113.579 44.7555L110.003 41.2016C109.549 40.7505 108.814 40.7506 108.36 41.2016C107.906 41.6525 107.906 42.3838 108.36 42.8348L111.936 46.3887C112.163 46.6142 112.46 46.7269 112.757 46.7269C113.055 46.7269 113.352 46.6142 113.579 46.3887C114.033 45.9377 114.033 45.2064 113.579 44.7555Z" fill="#0436A1"/>
<path d="M99.5 37.9299C109.165 37.9299 117 30.1045 117 20.4513C117 10.7981 109.165 2.97266 99.5 2.97266C89.835 2.97266 82 10.7981 82 20.4513C82 30.1045 89.835 37.9299 99.5 37.9299Z" fill="#00AEC7"/>
<path d="M99.4167 9.96094C93.4555 9.96094 88.5781 14.8383 88.5781 20.7995C88.5781 26.7607 93.4555 31.6381 99.4167 31.6381C105.378 31.6381 110.255 26.7607 110.255 20.7995C110.255 14.8383 105.378 9.96094 99.4167 9.96094ZM99.4167 29.4704C94.6369 29.4704 90.7458 25.5793 90.7458 20.7995C90.7458 16.0197 94.6369 12.1287 99.4167 12.1287C104.197 12.1287 108.088 16.0197 108.088 20.7995C108.088 25.5793 104.197 29.4704 99.4167 29.4704ZM99.9586 15.3802H98.3329V21.8834L103.969 25.3517L104.836 23.9427L99.9586 21.0163V15.3802Z" fill="white"/>
</svg>
